{
  "images" : [
    {
      "idiom" : "universal",
      "scale" : "1x"
    },
    {
      "resizing" : {
        "mode" : "9-part",
        "center" : {
          "mode" : "tile",
          "width" : 1,
          "height" : 1
        },
        "cap-insets" : {
          "bottom" : 12,
          "top" : 11,
          "right" : 16,
          "left" : 10
        }
      },
      "idiom" : "universal",
      "filename" : "bar_grey_bg_h@2x.png",
      "scale" : "2x"
    },
    {
      "resizing" : {
        "mode" : "9-part",
        "center" : {
          "mode" : "tile",
          "width" : 1,
          "height" : 1
        },
        "cap-insets" : {
          "bottom" : 18,
          "top" : 17,
          "right" : 24,
          "left" : 15
        }
      },
      "idiom" : "universal",
      "filename" : "bar_grey_bg_h@3x.png",
      "scale" : "3x"
    }
  ],
  "info" : {
    "version" : 1,
    "author" : "xcode"
  }
}